^P:\VISUAL\C++\EMPTIES\PROJECT2\PROJECT2\DEBUG\MAIN.OBJ
P:\VISUAL\C++\EMPTIES\PROJECT2\PROJECT2\DEBUG\PROJECT2.EXE
P:\VISUAL\C++\EMPTIES\PROJECT2\PROJECT2\DEBUG\PROJECT2.ILK
P:\VISUAL\C++\EMPTIES\PROJECT2\PROJECT2\DEBUG\PROJECT2.PDB
